…
## General usage

All ggPlantmaps are pre-loaded in the package, you can call them
directly in your R environment by typing their name.

``` r
library(ggPlantmap)
##examples
ggPm.At.roottip.longitudinal
#> # A tibble: 1,541 × 7
#>    ROI.name    Level1   Level2 ROI.id point     x     y
#>    <chr>       <chr>    <chr>   <int> <int> <dbl> <dbl>
#>  1 Meristem.QC Meristem QC          1     1  121. -323.
#>  2 Meristem.QC Meristem QC          1     2  127. -315.
#>  3 Meristem.QC Meristem QC          1     3  134. -315.
#>  4 Meristem.QC Meristem QC          1     4  149. -318.
#>  5 Meristem.QC Meristem QC          1     5  149. -329.
#>  6 Meristem.QC Meristem QC          1     6  134. -327.
#>  7 Meristem.QC Meristem QC          2     1  150. -330.
#>  8 Meristem.QC Meristem QC          2     2  150. -318.
#>  9 Meristem.QC Meristem QC          2     3  156. -317.
#> 10 Meristem.QC Meristem QC          2     4  164. -316.
#> # … with 1,531 more rows
ggPm.At.roottip.crosssection
#> # A tibble: 1,408 × 5
#>    ROI.name  ROI.id point     x     y
#>    <chr>      <int> <int> <dbl> <dbl>
#>  1 Epidermis      1     1  156. -333.
#>  2 Epidermis      1     2  167. -332.
#>  3 Epidermis      1     3  177. -340.
#>  4 Epidermis      1     4  176. -380.
#>  5 Epidermis      1     5  173. -384.
#>  6 Epidermis      1     6  165. -387.
#>  7 Epidermis      1     7  157. -387.
#>  8 Epidermis      1     8  145. -381.
#>  9 Epidermis      1     9  142. -377.
#> 10 Epidermis      1    10  138. -371.
#> # … with 1,398 more rows
ggPm.Ms.root.crosssection
#> # A tibble: 2,441 × 5
#>    ROI.name ROI.id point     x     y
#>    <chr>     <int> <int> <dbl> <dbl>
#>  1 C1            1     1  270. -308.
#>  2 C1            1     2  234. -287.
#>  3 C1            1     3  241. -257.
#>  4 C1            1     4  271. -238.
#>  5 C1            1     5  285. -243.
#>  6 C1            1     6  307. -270.
#>  7 C1            1     7  298. -289.
#>  8 C1            1     8  284. -302.
#>  9 C1            2     1  285. -242.
#> 10 C1            2     2  308. -270.
#> # … with 2,431 more rows
```
…
