…
2)  Creating a fake expression data for the ggPm.At.roottip.crosssection
    map:

``` r
## Creating a fake expression data for the ggPm.At.roottip.crosssection map
expression <- NULL
for(k in 1:50) {
  foo <- tibble(ROI.name=unique(ggPm.At.roottip.crosssection$ROI.name),
         value=runif(length(unique(ggPm.At.roottip.crosssection$ROI.name)),min = 10,max=100)) %>%
    mutate(gene = paste0("gene",k),
           value=value^2)
  expression <- rbind(expression,foo)
}
expression
#> # A tibble: 400 × 3
#>    ROI.name   value gene 
#>    <chr>      <dbl> <chr>
#>  1 Epidermis  5078. gene1
#>  2 Columella  1758. gene1
#>  3 Cortex      730. gene1
#>  4 Endodermis 1828. gene1
#>  5 Pericycle  5652. gene1
#>  6 Phloem     3506. gene1
#>  7 Procambium  750. gene1
#>  8 Xylem      6681. gene1
#>  9 Epidermis  1449. gene2
#> 10 Columella  5558. gene2
#> # ℹ 390 more rows
```
…
