…
### 2.3 Opening some of the pre-loaded objects

To load a pre-loaded ggPlantmap, just write their name on your console.
These objects can be assigned as objects and they can be considered as
regular tibbles.

``` r
ggPm.At.lateralroot.devseries
#> # A tibble: 3,415 × 7
#>    ROI.name         Stage  Cell      ROI.id point     x     y
#>    <chr>            <chr>  <chr>      <int> <int> <dbl> <dbl>
#>  1 Stage1.Pericycle Stage1 Pericycle      1     1  109. -407.
#>  2 Stage1.Pericycle Stage1 Pericycle      1     2  108. -191.
#>  3 Stage1.Pericycle Stage1 Pericycle      1     3  126. -194.
#>  4 Stage1.Pericycle Stage1 Pericycle      1     4  136. -407.
#>  5 Stage1.Pericycle Stage1 Pericycle      2     1  108. -478.
#>  6 Stage1.Pericycle Stage1 Pericycle      2     2  109. -407.
#>  7 Stage1.Pericycle Stage1 Pericycle      2     3  136. -408.
#>  8 Stage1.Pericycle Stage1 Pericycle      2     4  141. -479.
#>  9 Stage1.Pericycle Stage1 Pericycle      3     1  108. -479.
#> 10 Stage1.Pericycle Stage1 Pericycle      3     2  141. -479.
#> # ℹ 3,405 more rows
p <- ggPm.At.shootapex.longitudinal
p
#> # A tibble: 1,218 × 7
#>    ROI.name Zone  Layer ROI.id point     x     y
#>    <chr>    <chr> <chr>  <int> <int> <dbl> <dbl>
#>  1 CZ.L1    CZ    L1         1     1  757. -254.
#>  2 CZ.L1    CZ    L1         1     2  757. -196.
#>  3 CZ.L1    CZ    L1         1     3  796. -175.
#>  4 CZ.L1    CZ    L1         1     4  839. -179.
#>  5 CZ.L1    CZ    L1         1     5  841. -248.
#>  6 CZ.L1    CZ    L1         1     6  812. -269.
#>  7 CZ.L1    CZ    L1         1     7  774. -268.
#>  8 CZ.L1    CZ    L1         2     1  841. -179.
#>  9 CZ.L1    CZ    L1         2     2  886. -162.
#> 10 CZ.L1    CZ    L1         2     3  932. -173.
#> # ℹ 1,208 more rows
```
…
<b> \### IMPORTANT!!!!

Note that the name of the ROI levels on your map should exactly match
the ones on your quantitative data!!!</b>

### 3.1 Merging quantitative data to your ggPlantmap

Included in the package is a sample quantitative data: The expression of
LEC1 during the development of Arabidopsis seed.

``` r
ggPm.At.seed.expression.sample
#> # A tibble: 30 × 2
#>    ROI.name                                AT5G47670.expression
#>    <chr>                                                  <int>
#>  1 Globular.endosperm.Chalazal Endosperm                     16
#>  2 Globular.seedcoat.Chalazal Seed Coat                       8
#>  3 Globular.embryo.Embryo Proper                             10
#>  4 Globular.endosperm.Micropylar Endosperm                   48
#>  5 Globular.endosperm.Peripheral Endosperm                   10
#>  6 Globular.seedcoat.Distal Seed Coat                        10
#>  7 Heart.endosperm.Chalazal Endosperm                        16
#>  8 Heart.seedcoat.Chalazal Seed Coat                         11
#>  9 Heart.embryo.Embryo Proper                                23
#> 10 Heart.endosperm.Micropylar Endosperm                      39
#> # ℹ 20 more rows
```

Let’s combine this dataset with the ggPlantmap for Arabidopsis seeds

``` r
ggPm.At.seed.devseries
#> # A tibble: 5,369 × 8
#>    ROI.name                          Stage Part  Region ROI.id point     x     y
#>    <chr>                             <chr> <chr> <chr>   <int> <int> <dbl> <dbl>
#>  1 Preglobular.seedcoat.Distal Seed… Preg… seed… Dista…      1     1  277. -693.
#>  2 Preglobular.seedcoat.Distal Seed… Preg… seed… Dista…      1     2  280. -689.
#>  3 Preglobular.seedcoat.Distal Seed… Preg… seed… Dista…      1     3  280. -685.
#>  4 Preglobular.seedcoat.Distal Seed… Preg… seed… Dista…      1     4  285. -681.
#>  5 Preglobular.seedcoat.Distal Seed… Preg… seed… Dista…      1     5  286. -675.
#>  6 Preglobular.seedcoat.Distal Seed… Preg… seed… Dista…      1     6  286. -669.
#>  7 Preglobular.seedcoat.Distal Seed… Preg… seed… Dista…      1     7  285. -663.
#>  8 Preglobular.seedcoat.Distal Seed… Preg… seed… Dista…      1     8  284. -659.
#>  9 Preglobular.seedcoat.Distal Seed… Preg… seed… Dista…      1     9  284. -656.
#> 10 Preglobular.seedcoat.Distal Seed… Preg… seed… Dista…      1    10  286. -653.
#> # ℹ 5,359 more rows
```

To do so, let’s use the ggPlantmap.merge() function You need to specify
as a character the name of the column in which the common names between
tables are found In this example: ROI.name

``` r
##ggPlantmap comes first, expression data comes second.
ggPlantmap.merge(ggPm.At.seed.devseries,ggPm.At.seed.expression.sample,"ROI.name")
#> # A tibble: 5,369 × 9
#>    ROI.name     Stage Part  Region ROI.id point     x     y AT5G47670.expression
#>    <chr>        <chr> <chr> <chr>   <int> <int> <dbl> <dbl>                <int>
#>  1 Preglobular… Preg… seed… Dista…      1     1  277. -693.                    8
#>  2 Preglobular… Preg… seed… Dista…      1     2  280. -689.                    8
#>  3 Preglobular… Preg… seed… Dista…      1     3  280. -685.                    8
#>  4 Preglobular… Preg… seed… Dista…      1     4  285. -681.                    8
#>  5 Preglobular… Preg… seed… Dista…      1     5  286. -675.                    8
#>  6 Preglobular… Preg… seed… Dista…      1     6  286. -669.                    8
#>  7 Preglobular… Preg… seed… Dista…      1     7  285. -663.                    8
#>  8 Preglobular… Preg… seed… Dista…      1     8  284. -659.                    8
#>  9 Preglobular… Preg… seed… Dista…      1     9  284. -656.                    8
#> 10 Preglobular… Preg… seed… Dista…      1    10  286. -653.                    8
#> # ℹ 5,359 more rows
quant.data <- ggPlantmap.merge(ggPm.At.seed.devseries,ggPm.At.seed.expression.sample,"ROI.name")
```

What if the column names for my ROI levels are not the same between the
data? In this case, you can specify which column is to used to merge the
two tables.

``` r
ggPlantmap.merge(ggPm.Sl.root.crosssection,ggPm.tomatoatlas.expression.sample,"ROI.name","Cell.layer")
#> # A tibble: 4,314 × 6
#>    ROI.name  ROI.id point     x     y SCR.expression
#>    <chr>      <int> <int> <dbl> <dbl>          <dbl>
#>  1 Exodermis      1     1  615. -370.              0
#>  2 Exodermis      1     2  601. -349.              0
#>  3 Exodermis      1     3  598. -327.              0
#>  4 Exodermis      1     4  617. -312.              0
#>  5 Exodermis      1     5  636. -307.              0
#>  6 Exodermis      1     6  651. -310.              0
#>  7 Exodermis      1     7  671. -327.              0
#>  8 Exodermis      1     8  684. -343.              0
#>  9 Exodermis      1     9  676. -354.              0
#> 10 Exodermis      1    10  668. -365.              0
#> # ℹ 4,304 more rows
```
…
