…
The data is organized with gene names in the first column followed by
the average expression (Raw UMI reads) for all the cells in a specific
cluster (C0 to C16). Note that there is an additional column for each
cluster (example: C0.), that describes the percentage of cells in the
cluster that expresses the gene at a certain threshold. For now, we will
only focus in the average expression values.

``` r
processed.data <- data %>%
    pivot_longer(-X) %>% ## making it tidy
    filter(!str_detect(name,"[.]")) ## removing columns that correspond to the percentage of cells with signal
processed.data
```

    ## # A tibble: 68 × 3
    ##    X         name  value
    ##    <chr>     <chr> <dbl>
    ##  1 AT1G03550 C0     0.1 
    ##  2 AT1G03550 C1     0.12
    ##  3 AT1G03550 C2     0.07
    ##  4 AT1G03550 C3     0.03
    ##  5 AT1G03550 C4     0.66
    ##  6 AT1G03550 C5     0.05
    ##  7 AT1G03550 C6     0.04
    ##  8 AT1G03550 C7     0.02
    ##  9 AT1G03550 C8     0.04
    ## 10 AT1G03550 C9     0.02
    ## # ℹ 58 more rows
…
This reference table was generated based on the image provided in the
[database](https://www.zmbp-resources.uni-tuebingen.de/timmermans/plant-single-cell-browser-root-atlas/cluster_lengend_1.png).
<b>We created a rough association for demonstration purposes.</b> This
is an extremely challenging part, as the distinction between clusters is
not clear in many datasets.

Ok, now we can proceed in plotting the expression values in a ggPlantmap
heatmap. We will use the pre-loaded ggPm.At.rootmatur.crossection map

``` r
ggPm.At.rootmatur.crosssection
```

    ## # A tibble: 1,113 × 5
    ##    ROI.name     ROI.id point     x     y
    ##    <chr>         <int> <int> <dbl> <dbl>
    ##  1 Atrichoblast      1     1  968. -323.
    ##  2 Atrichoblast      1     2  987. -305.
    ##  3 Atrichoblast      1     3  999. -300.
    ##  4 Atrichoblast      1     4 1019. -320.
    ##  5 Atrichoblast      1     5 1027. -332.
    ##  6 Atrichoblast      1     6 1024. -353.
    ##  7 Atrichoblast      1     7 1012. -366.
    ##  8 Atrichoblast      1     8  994. -369.
    ##  9 Atrichoblast      1     9  980. -367.
    ## 10 Atrichoblast      1    10  972. -365.
    ## # ℹ 1,103 more rows
…
